Maori,5.782946732635096E-4
Vietnamese,0.0018633939471824198
Haitian Creole,3.2127481847972754E-4
Latvian,1.9276489108783655E-4
Danish,0.0010280794191351282
French,0.005718691768939151
Galician,9.638244554391826E-4
Hmong,6.425496369594551E-5
Finnish,3.2127481847972754E-4
Hungarian,0.0011565893465270193
Bosnian,0.0010280794191351282
Welsh,5.140397095675641E-4
Lithuanian,6.425496369594551E-4
Czech,8.995694917432372E-4
Indonesian,3.855297821756731E-4
Igbo,6.425496369594551E-5
Esperanto,1.2850992739189102E-4
Malay,9.638244554391826E-4
Filipino,8.353145280472916E-4
Albanian,4.497847458716186E-4
Irish,1.2850992739189102E-4
Italian,0.0037910428580607853
Slovak,5.782946732635096E-4
Spanish,0.00501188716828375
Slovenian,0.0010280794191351282
Basque,3.2127481847972754E-4
Dutch,8.353145280472916E-4
Norwegian,3.855297821756731E-4
English,0.9477607145151963
Turkish,3.855297821756731E-4
Portuguese,0.005525926877851314
Latin,2.5701985478378205E-4
Catalan,5.782946732635096E-4
Polish,0.004819122277195913
Javanese,6.425496369594551E-5
Romanian,0.0016063740923986378
German,0.0014136092013108013
Afrikaans,0.004240827603932404
Swedish,0.0025701985478378203
Estonian,5.782946732635096E-4
