Maori,29
Vietnamese,49
Haitian Creole,17
Yoruba,1
Hausa,3
French,204
Hmong,9
Hungarian,15
Bosnian,5
Maltese,16
Welsh,22
Lithuanian,18
Indonesian,41
Igbo,1
Filipino,14
Irish,9
Cebuano,5
Zulu,2
Slovak,6
Slovenian,30
Azerbaijani,7
Norwegian,82
Turkish,26
Portuguese,138
Latin,15
Catalan,113
Afrikaans,46
Swahili,8
Latvian,7
Danish,63
Galician,48
Finnish,39
Czech,40
Esperanto,28
Malay,20
Italian,230
Albanian,10
Icelandic,10
Spanish,135
Somali,2
Basque,14
English,14242
Dutch,29
Croatian,4
Polish,27
Javanese,3
Romanian,104
German,97
Swedish,71
Estonian,56
