Maori,0.0017890191239975325
Vietnamese,0.0030228254164096236
Latvian,4.3183220234423197E-4
Haitian Creole,0.0010487353485502777
Danish,0.0038864898210980874
Hausa,1.850709438618137E-4
Yoruba,6.169031462060457E-5
Galician,0.002961135101789019
French,0.012584824182603331
Hmong,5.55212831585441E-4
Finnish,0.002405922270203578
Hungarian,9.253547193090684E-4
Bosnian,3.0845157310302283E-4
Maltese,9.87045033929673E-4
Welsh,0.0013571869216533004
Lithuanian,0.001110425663170882
Czech,0.0024676125848241827
Indonesian,0.002529302899444787
Malay,0.0012338062924120913
Esperanto,0.0017273288093769279
Igbo,6.169031462060457E-5
Albanian,6.169031462060457E-4
Italian,0.01418877236273905
Filipino,8.636644046884639E-4
Irish,5.55212831585441E-4
Cebuano,3.0845157310302283E-4
Icelandic,6.169031462060457E-4
Zulu,1.2338062924120913E-4
Slovak,3.701418877236274E-4
Spanish,0.008328192473781616
Slovenian,0.001850709438618137
Somali,1.2338062924120913E-4
Azerbaijani,4.3183220234423197E-4
Basque,8.636644046884639E-4
Dutch,0.0017890191239975325
English,0.8785934608266502
Norwegian,0.005058605798889574
Turkish,0.0016039481801357186
Portuguese,0.00851326341764343
Latin,9.253547193090684E-4
Catalan,0.006971005552128316
Croatian,2.4676125848241827E-4
Javanese,1.850709438618137E-4
Polish,0.0016656384947563233
Romanian,0.0064157927205428745
German,0.005983960518198643
Swahili,4.935225169648365E-4
Afrikaans,0.00283775447254781
Swedish,0.004380012338062924
Estonian,0.0034546576187538557
