null,7.5564031520996E-4
Maori,3.598287215285524E-5
Vietnamese,0.0020150408405598935
Sesotho,0.0037782015760498004
Haitian Creole,0.001655212119031341
Latvian,1.0794861645856572E-4
Danish,0.007232557302723904
Yoruba,7.196574430571048E-5
Sundanese,0.0010075204202799467
Galician,0.001043503292432802
French,0.01489690907128207
Hmong,3.598287215285524E-5
Finnish,0.005577345183692562
Hungarian,0.013133748335792162
Bosnian,3.238458493756972E-4
Maltese,2.8786297722284193E-4
Korean,0.0029505955165341296
Welsh,2.518801050699867E-4
Lithuanian,0.002446835306394156
Czech,0.003418372854521248
Indonesian,0.005541362311539707
Malay,0.0023029038177827354
Esperanto,2.518801050699867E-4
Filipino,4.3179446583426287E-4
Italian,0.002410852434241301
Albanian,2.1589723291713143E-4
Irish,8.635889316685257E-4
Icelandic,0.002087006584865604
Zulu,3.598287215285524E-5
Slovak,8.99571803821381E-4
Spanish,0.004749739124176892
Slovenian,0.00302256126083984
Somali,7.196574430571048E-5
Basque,3.958115936814077E-4
Dutch,0.0021949552013241697
English,0.8603864560469217
Norwegian,0.009319563887589507
Turkish,0.0022669209456298803
Portuguese,0.019754596811917526
Latin,1.799143607642762E-4
Catalan,6.836745709042495E-4
Javanese,0.0020150408405598935
Polish,6.476916987513944E-4
Romanian,0.004677773379871181
Afrikaans,7.5564031520996E-4
German,0.008563923572379548
Swedish,0.0014033320139613544
Estonian,0.002842646900075564
