Vietnamese,0.0016100178890876566
Haitian Creole,5.366726296958855E-4
Danish,8.050089445438283E-4
Hausa,2.6833631484794273E-4
Yoruba,2.6833631484794273E-4
French,0.0033094812164579605
Galician,3.5778175313059033E-4
Hmong,4.472271914132379E-4
Finnish,8.050089445438283E-4
Hungarian,6.261180679785331E-4
Bosnian,2.6833631484794273E-4
Maltese,2.6833631484794273E-4
Welsh,2.6833631484794273E-4
Lithuanian,1.7889087656529517E-4
Czech,8.050089445438283E-4
Indonesian,5.366726296958855E-4
Esperanto,4.472271914132379E-4
Malay,1.7889087656529517E-4
Igbo,1.7889087656529517E-4
Filipino,1.7889087656529517E-4
Irish,8.944543828264758E-5
Italian,0.0034883720930232558
Cebuano,3.5778175313059033E-4
Icelandic,9.838998211091235E-4
Slovak,0.00259391771019678
Spanish,0.004919499105545617
Slovenian,0.001967799642218247
Somali,2.6833631484794273E-4
Basque,8.050089445438283E-4
English,0.9434704830053667
Norwegian,0.0014311270125223613
Dutch,8.944543828264758E-5
Turkish,7.155635062611807E-4
Portuguese,0.00957066189624329
Latin,1.7889087656529517E-4
Catalan,5.366726296958855E-4
Croatian,8.944543828264758E-5
Polish,0.008318425760286225
Romanian,6.261180679785331E-4
Swahili,4.472271914132379E-4
German,0.002325581395348837
Afrikaans,0.002772808586762075
Swedish,9.838998211091235E-4
Estonian,6.261180679785331E-4
