Maori,7.326007326007326E-4
Vietnamese,0.003663003663003663
Latvian,7.326007326007326E-4
French,7.326007326007326E-4
Galician,0.04249084249084249
Hungarian,0.004395604395604396
Welsh,0.002197802197802198
Lithuanian,0.004395604395604396
Indonesian,7.326007326007326E-4
Czech,0.0014652014652014652
Esperanto,0.002197802197802198
Filipino,0.0014652014652014652
Italian,0.04908424908424908
Icelandic,0.0014652014652014652
Slovak,7.326007326007326E-4
Spanish,0.19047619047619047
Slovenian,0.0029304029304029304
English,0.3098901098901099
Norwegian,7.326007326007326E-4
Portuguese,0.3626373626373626
Catalan,0.002197802197802198
Romanian,0.0029304029304029304
Afrikaans,0.0014652014652014652
German,7.326007326007326E-4
Swedish,0.006593406593406593
Estonian,0.0029304029304029304
