Maori,4
null,36
Vietnamese,6
Sesotho,62
Haitian Creole,22
Yoruba,2
French,415
Hmong,5
Hungarian,377
Maltese,20
Korean,12
Welsh,18
Lithuanian,142
Indonesian,127
Irish,63
Filipino,5
Cebuano,1
Zulu,26
Slovak,20
Slovenian,194
Azerbaijani,34
Norwegian,93
Turkish,13
Portuguese,395
Latin,124
Catalan,183
Afrikaans,139
Latvian,33
Danish,188
Galician,112
Finnish,315
Czech,152
Malay,9
Esperanto,4
Albanian,7
Italian,218
Icelandic,14
Spanish,241
Somali,8
Basque,9
Dutch,180
English,30545
Croatian,2
Polish,50
Javanese,124
Romanian,174
German,200
Swedish,314
Uzbek,7
Estonian,59
