Maori,9
Vietnamese,109
Latvian,229
Haitian Creole,56
Yoruba,1
Hausa,11
Danish,340
Galician,20
French,1007
Hmong,7
Finnish,47
Hungarian,102
Bosnian,6
Maltese,70
Welsh,13
Lithuanian,41
Czech,7
Indonesian,126
Esperanto,60
Malay,115
Irish,3
Italian,354
Albanian,2
Filipino,20
Cebuano,1
Zulu,12
Icelandic,26
Slovak,25
Spanish,1161
Slovenian,19
Somali,3
Azerbaijani,20
Basque,10
Dutch,33
Norwegian,272
English,241458
Turkish,12
Portuguese,6368
Latin,5
Catalan,72
Croatian,3
Polish,108
Javanese,25
Romanian,255
Afrikaans,69
German,122
Swedish,123
Estonian,116
