Maori,9.96512207274539E-4
Vietnamese,0.0064773293472845045
Latvian,4.982561036372695E-4
Haitian Creole,4.982561036372695E-4
Yoruba,4.982561036372695E-4
Danish,0.002491280518186348
Galician,9.96512207274539E-4
French,0.018435475834578975
Hmong,4.982561036372695E-4
Finnish,0.003986048829098156
Hungarian,0.001993024414549078
Bosnian,0.0029895366218236174
Maltese,9.96512207274539E-4
Welsh,9.96512207274539E-4
Lithuanian,4.982561036372695E-4
Indonesian,0.003487792725460887
Czech,0.0014947683109118087
Esperanto,4.982561036372695E-4
Igbo,0.001993024414549078
Malay,0.0014947683109118087
Irish,0.0014947683109118087
Albanian,4.982561036372695E-4
Filipino,0.0029895366218236174
Italian,0.007972097658196313
Icelandic,0.01046337817638266
Slovak,0.0014947683109118087
Spanish,0.005480817140009965
Slovenian,0.005480817140009965
Somali,4.982561036372695E-4
Azerbaijani,9.96512207274539E-4
Basque,0.001993024414549078
Norwegian,0.003487792725460887
English,0.8525161933233683
Dutch,0.0014947683109118087
Turkish,0.0029895366218236174
Portuguese,0.019930244145490782
Latin,9.96512207274539E-4
Catalan,0.001993024414549078
Croatian,4.982561036372695E-4
Polish,0.004484304932735426
Javanese,4.982561036372695E-4
Romanian,0.003986048829098156
German,0.004982561036372696
Afrikaans,0.005979073243647235
Swahili,4.982561036372695E-4
Swedish,9.96512207274539E-4
Estonian,0.003487792725460887
