null,0.0018744142455482662
Vietnamese,0.0028116213683223993
Latvian,0.0018744142455482662
Haitian Creole,0.0028116213683223993
Sesotho,0.005623242736644799
Danish,0.010309278350515464
French,0.01874414245548266
Galician,0.006560449859418931
Malagasy,0.0018744142455482662
Finnish,0.005623242736644799
Hungarian,0.0028116213683223993
Maltese,0.0018744142455482662
Korean,0.007497656982193065
Welsh,0.005623242736644799
Lithuanian,0.0018744142455482662
Indonesian,0.007497656982193065
Czech,0.005623242736644799
Malay,0.0028116213683223993
Chinese (Traditional),0.004686035613870665
Italian,0.008434864104967198
Filipino,0.0028116213683223993
Albanian,0.0028116213683223993
Cebuano,9.372071227741331E-4
Icelandic,0.010309278350515464
Zulu,9.372071227741331E-4
Slovak,0.0018744142455482662
Spanish,0.005623242736644799
Slovenian,0.0037488284910965324
Somali,0.0018744142455482662
Azerbaijani,0.0018744142455482662
Basque,0.005623242736644799
English,0.7750702905342081
Norwegian,0.005623242736644799
Dutch,0.0037488284910965324
Turkish,0.0028116213683223993
Portuguese,0.0037488284910965324
Latin,0.0018744142455482662
Catalan,0.010309278350515464
Croatian,0.0018744142455482662
Javanese,0.0037488284910965324
Polish,0.0028116213683223993
Romanian,0.01218369259606373
Afrikaans,0.004686035613870665
Swahili,9.372071227741331E-4
German,0.007497656982193065
Swedish,0.006560449859418931
Estonian,0.011246485473289597
