null,10
Maori,6
Vietnamese,67
Haitian Creole,36
Sesotho,296
Hausa,2
Sundanese,34
French,1224
Malagasy,10
Hmong,9
Hungarian,944
Bosnian,5
Maltese,75
Korean,45
Welsh,72
Lithuanian,202
Indonesian,1045
Igbo,4
Irish,103
Filipino,231
Cebuano,1
Zulu,34
Slovak,43
Slovenian,117
Chichewa,10
Azerbaijani,61
Norwegian,339
Turkish,55
Portuguese,908
Latin,41
Catalan,222
Swahili,1
Afrikaans,73
Danish,561
Galician,272
Finnish,286
Czech,321
Malay,21
Esperanto,17
Albanian,1
Italian,1264
Icelandic,114
Spanish,759
Somali,97
Basque,151
English,54741
Dutch,69
Croatian,5
Javanese,88
Polish,75
Romanian,341
German,828
Swedish,199
Uzbek,23
Estonian,72
