Maori,5.428734290600146E-5
null,5.428734290600146E-5
Vietnamese,0.002551505116582069
Haitian Creole,0.0010586031866670286
Sesotho,0.0017914823158980484
Yoruba,2.714367145300073E-5
Sundanese,5.428734290600146E-5
French,0.010640319209576287
Hmong,1.3571835726500366E-4
Malagasy,2.714367145300073E-5
Hungarian,0.020004885860861542
Bosnian,2.714367145300073E-5
Maltese,0.0014657582584620395
Korean,3.257240574360088E-4
Welsh,0.0030400912027360822
Lithuanian,9.771721723080265E-4
Indonesian,9.228848294020249E-4
Igbo,2.714367145300073E-5
Filipino,2.442930430770066E-4
Irish,3.800114003420103E-4
Cebuano,8.14310143590022E-5
Zulu,1.628620287180044E-4
Slovak,7.05735457778019E-4
Slovenian,0.0010314595152140279
Chichewa,1.628620287180044E-4
Norwegian,0.002334355744958063
Turkish,3.528677288890095E-4
Portuguese,0.023560706821204636
Latin,0.0038001140034201026
Catalan,8.414538150430227E-4
Afrikaans,0.0014929019299150404
Swahili,2.714367145300073E-5
Latvian,0.001221465215385033
Danish,0.006948779891968187
Galician,0.002415786759317065
Finnish,4.342987432480117E-4
Czech,0.0045058494611981215
Malay,3.257240574360088E-4
Esperanto,3.528677288890095E-4
Chinese (Traditional),8.14310143590022E-5
Albanian,2.714367145300073E-5
Italian,0.004695855161369127
Icelandic,2.1714937162400585E-4
Spanish,0.004777286175728129
Somali,1.3571835726500366E-4
Basque,2.9858038598300804E-4
Dutch,2.442930430770066E-4
English,0.8841779539100458
Croatian,2.1714937162400585E-4
Polish,0.0011400342010260307
Javanese,3.257240574360088E-4
Romanian,0.002117206373334057
German,0.005075866561711137
Swedish,0.00111289052957303
Uzbek,1.0857468581200293E-4
Estonian,6.785917863250183E-4
