null,7
Maori,1
Vietnamese,14
Latvian,2
Sesotho,156
Haitian Creole,21
Hausa,2
Danish,178
Galician,102
French,209
Finnish,19
Hungarian,451
Maltese,38
Korean,17
Welsh,120
Lithuanian,79
Indonesian,20
Czech,135
Esperanto,5
Malay,3
Irish,8
Filipino,12
Italian,120
Albanian,1
Cebuano,1
Icelandic,16
Slovak,3
Spanish,209
Slovenian,12
Azerbaijani,41
Basque,8
Dutch,17
Norwegian,55
English,18050
Turkish,8
Portuguese,512
Latin,54
Catalan,73
Croatian,4
Javanese,33
Polish,46
Romanian,131
Swahili,5
Afrikaans,20
German,131
Uzbek,4
Swedish,68
Estonian,34
