Maori,2.767783005812344E-4
Vietnamese,6.813004321999617E-4
Latvian,1.7032510804999043E-4
Haitian Creole,2.1290638506248804E-4
Danish,0.0012774383103749281
Hausa,4.258127701249761E-5
Yoruba,7.664629862249569E-4
Galician,5.109753241499713E-4
French,0.007441078157933956
Hmong,1.0645319253124402E-4
Finnish,5.961378781749665E-4
Hungarian,2.5548766207498564E-4
Bosnian,1.4903446954374163E-4
Maltese,8.942068172624497E-4
Welsh,2.5548766207498564E-4
Lithuanian,0.0014477634184249185
Czech,3.4065021609998086E-4
Indonesian,0.0010006600097936936
Esperanto,1.2774383103749282E-4
Malay,3.1935957759373203E-4
Igbo,2.1290638506248804E-5
Albanian,6.387191551874641E-5
Italian,0.0031510144989248226
Filipino,0.001830994911537397
Irish,2.1290638506248804E-5
Cebuano,0.0010751772445655645
Icelandic,4.258127701249761E-5
Zulu,6.387191551874641E-5
Slovak,2.767783005812344E-4
Spanish,0.0061742851668121525
Slovenian,0.0010219506482999426
Somali,4.258127701249761E-5
Azerbaijani,5.109753241499713E-4
Basque,1.0645319253124402E-4
English,0.9337754689263131
Dutch,2.341970235687368E-4
Norwegian,9.154974557686985E-4
Turkish,1.4903446954374163E-4
Portuguese,0.023249377248823692
Latin,1.2774383103749282E-4
Catalan,4.896846856437225E-4
Croatian,1.0645319253124402E-4
Javanese,1.7032510804999043E-4
Polish,8.729161787562009E-4
Romanian,0.0025442313014967318
German,0.002916817475356086
Swahili,4.258127701249761E-5
Afrikaans,0.0012135663948561817
Swedish,0.001192275756349933
Estonian,7.238817092124593E-4
