Maori,4.069175991861648E-4
Vietnamese,0.003662258392675483
Latvian,0.0014242115971515768
Haitian Creole,0.0016276703967446592
Danish,0.003051881993896236
Hausa,4.069175991861648E-4
Yoruba,2.034587995930824E-4
Galician,0.0014242115971515768
French,0.010376398779247202
Hmong,0.001017293997965412
Finnish,0.0016276703967446592
Hungarian,0.0014242115971515768
Bosnian,8.138351983723296E-4
Maltese,0.001017293997965412
Welsh,0.0016276703967446592
Lithuanian,0.0016276703967446592
Czech,0.0014242115971515768
Indonesian,0.0034587995930824007
Esperanto,6.103763987792472E-4
Malay,8.138351983723296E-4
Igbo,2.034587995930824E-4
Albanian,6.103763987792472E-4
Italian,0.00508646998982706
Filipino,0.0018311291963377416
Irish,2.034587995930824E-4
Cebuano,0.0012207527975584944
Icelandic,4.069175991861648E-4
Zulu,2.034587995930824E-4
Slovak,6.103763987792472E-4
Spanish,0.0046795523906408955
Slovenian,0.002644964394710071
Somali,2.034587995930824E-4
Azerbaijani,4.069175991861648E-4
Basque,6.103763987792472E-4
English,0.901119023397762
Dutch,0.0016276703967446592
Norwegian,0.003662258392675483
Turkish,0.0014242115971515768
Portuguese,0.007934893184130213
Latin,8.138351983723296E-4
Catalan,0.0022380467955239063
Croatian,6.103763987792472E-4
Javanese,8.138351983723296E-4
Polish,0.002034587995930824
Romanian,0.003662258392675483
German,0.006103763987792472
Swahili,4.069175991861648E-4
Afrikaans,0.0024415055951169887
Swedish,0.004272634791454731
Estonian,0.0038657171922685655
