Portuguese,0.018518518518518517
French,0.018518518518518517
Esperanto,0.009259259259259259
Filipino,0.018518518518518517
Afrikaans,0.018518518518518517
English,0.9074074074074074
Estonian,0.009259259259259259
