Maori,7.763975155279503E-4
Vietnamese,0.013975155279503106
Latvian,0.0015527950310559005
Haitian Creole,7.763975155279503E-4
Danish,0.005434782608695652
French,0.014751552795031056
Galician,0.002329192546583851
Finnish,0.015527950310559006
Hungarian,7.763975155279503E-4
Bosnian,0.004658385093167702
Maltese,7.763975155279503E-4
Welsh,0.006211180124223602
Lithuanian,7.763975155279503E-4
Czech,0.003105590062111801
Indonesian,0.0015527950310559005
Esperanto,0.0015527950310559005
Malay,0.0038819875776397515
Filipino,0.006987577639751553
Albanian,0.008540372670807454
Italian,0.006987577639751553
Icelandic,0.07996894409937888
Slovak,0.003105590062111801
Spanish,0.017080745341614908
Slovenian,0.009316770186335404
English,0.7313664596273292
Norwegian,0.0038819875776397515
Dutch,0.003105590062111801
Turkish,0.003105590062111801
Portuguese,0.011645962732919254
Catalan,0.002329192546583851
Polish,0.005434782608695652
Romanian,0.004658385093167702
German,0.003105590062111801
Afrikaans,0.007763975155279503
Swahili,0.004658385093167702
Swedish,0.005434782608695652
Estonian,0.003105590062111801
