Maori,10
Vietnamese,807
Haitian Creole,25
Latvian,21
Hausa,1
Yoruba,7
Danish,243
Galician,507
French,621
Hmong,5
Finnish,285
Hungarian,33
Bosnian,12
Maltese,279
Welsh,30
Lithuanian,181
Czech,284
Indonesian,150
Malay,228
Igbo,7
Esperanto,20
Filipino,77
Irish,21
Albanian,22
Italian,933
Cebuano,26
Icelandic,37
Zulu,3
Slovak,122
Spanish,1453
Slovenian,446
Somali,174
Azerbaijani,27
Basque,6
English,180536
Dutch,153
Norwegian,191
Turkish,159
Portuguese,1691
Latin,47
Catalan,206
Croatian,80
Javanese,113
Polish,277
Romanian,427
Afrikaans,154
Swahili,31
German,891
Swedish,190
Estonian,803
