Maori,23
null,274
Vietnamese,80
Haitian Creole,107
Sesotho,307
Hausa,12
Yoruba,22
Sundanese,7
French,1677
Hmong,8
Malagasy,11
Hungarian,2598
Bosnian,25
Maltese,111
Korean,218
Welsh,160
Lithuanian,51
Indonesian,183
Igbo,3
Irish,87
Filipino,31
Cebuano,5
Zulu,95
Slovak,105
Slovenian,246
Azerbaijani,12
Chichewa,4
Norwegian,287
Turkish,98
Portuguese,565
Latin,115
Catalan,309
Swahili,48
Afrikaans,99
Latvian,17
Danish,1552
Galician,272
Finnish,155
Czech,430
Esperanto,33
Malay,87
Albanian,27
Italian,870
Icelandic,53
Spanish,446
Somali,13
Basque,38
English,93230
Dutch,158
Croatian,157
Polish,111
Javanese,25
Romanian,358
German,357
Uzbek,14
Swedish,118
Estonian,382
