Vietnamese,0.009794319294809012
Haitian Creole,0.0019588638589618022
Galician,9.794319294809011E-4
French,0.02644466209598433
Hungarian,9.794319294809011E-4
Bosnian,0.0019588638589618022
Maltese,9.794319294809011E-4
Lithuanian,0.002938295788442703
Indonesian,0.015670910871694418
Czech,9.794319294809011E-4
Filipino,9.794319294809011E-4
Italian,0.015670910871694418
Icelandic,9.794319294809011E-4
Spanish,0.005876591576885406
Slovenian,0.0039177277179236044
Azerbaijani,0.007835455435847209
English,0.8550440744368266
Dutch,9.794319294809011E-4
Portuguese,0.019588638589618023
Latin,9.794319294809011E-4
Polish,0.010773751224289911
Romanian,0.004897159647404506
Swahili,0.002938295788442703
Afrikaans,9.794319294809011E-4
German,0.002938295788442703
Swedish,0.002938295788442703
