null,2.0202020202020202E-4
Vietnamese,0.0034343434343434343
Sesotho,0.008888888888888889
Haitian Creole,0.0048484848484848485
Danish,0.0038383838383838384
Yoruba,4.0404040404040404E-4
Galician,0.0028282828282828283
French,0.018383838383838384
Finnish,0.0012121212121212121
Hungarian,0.017777777777777778
Bosnian,0.0034343434343434343
Maltese,0.00101010101010101
Korean,8.080808080808081E-4
Welsh,0.0036363636363636364
Lithuanian,0.00101010101010101
Czech,0.008888888888888889
Indonesian,0.00202020202020202
Malay,0.0018181818181818182
Esperanto,6.060606060606061E-4
Filipino,0.00101010101010101
Italian,0.011515151515151515
Albanian,0.0018181818181818182
Irish,0.0034343434343434343
Zulu,2.0202020202020202E-4
Slovak,6.060606060606061E-4
Spanish,0.009898989898989899
Slovenian,0.013333333333333334
Somali,6.060606060606061E-4
Azerbaijani,0.00202020202020202
Basque,0.0026262626262626263
English,0.7896969696969697
Dutch,0.0052525252525252525
Norwegian,0.011111111111111112
Turkish,0.00101010101010101
Portuguese,0.01575757575757576
Latin,8.080808080808081E-4
Catalan,0.0016161616161616162
Croatian,8.080808080808081E-4
Polish,0.0034343434343434343
Javanese,0.0032323232323232323
Romanian,0.004646464646464647
Afrikaans,0.0048484848484848485
German,0.011111111111111112
Swedish,0.006464646464646465
Estonian,0.00808080808080808
