Vietnamese,0.003517748640869843
Haitian Creole,0.0019187719859290054
Latvian,3.197953309881676E-4
Hausa,6.395906619763352E-4
Danish,0.002878157978893508
Galician,0.0015989766549408379
French,0.007035497281739686
Hmong,3.197953309881676E-4
Finnish,0.0025583626479053407
Hungarian,0.0019187719859290054
Maltese,0.0025583626479053407
Welsh,3.197953309881676E-4
Lithuanian,9.593859929645027E-4
Czech,3.197953309881676E-4
Indonesian,0.0019187719859290054
Esperanto,3.197953309881676E-4
Malay,0.0019187719859290054
Albanian,6.395906619763352E-4
Irish,6.395906619763352E-4
Italian,0.008954269267668692
Filipino,0.0012791813239526704
Cebuano,6.395906619763352E-4
Icelandic,3.197953309881676E-4
Zulu,3.197953309881676E-4
Slovak,0.0012791813239526704
Spanish,0.008634473936680525
Slovenian,0.0031979533098816758
Azerbaijani,9.593859929645027E-4
Basque,6.395906619763352E-4
Dutch,0.0019187719859290054
English,0.9047009913655261
Norwegian,0.0015989766549408379
Turkish,0.002238567316917173
Portuguese,0.00799488327470419
Catalan,0.003837543971858011
Polish,0.003517748640869843
Romanian,0.0025583626479053407
German,0.004477134633834346
Afrikaans,0.003837543971858011
Swahili,3.197953309881676E-4
Swedish,0.0019187719859290054
Estonian,0.0025583626479053407
