null,17
Maori,1
Vietnamese,43
Sesotho,72
Haitian Creole,29
Hausa,1
Sundanese,1
French,266
Malagasy,5
Hmong,4
Hungarian,617
Maltese,68
Korean,30
Welsh,31
Lithuanian,91
Indonesian,33
Igbo,1
Filipino,23
Irish,19
Zulu,3
Slovak,12
Slovenian,195
Azerbaijani,54
Chichewa,3
Norwegian,160
Turkish,7
Portuguese,613
Latin,36
Catalan,161
Swahili,1
Afrikaans,58
Latvian,2
Danish,442
Galician,97
Finnish,22
Czech,87
Esperanto,57
Malay,29
Italian,254
Albanian,82
Icelandic,18
Spanish,182
Somali,5
Basque,10
Dutch,71
English,23406
Croatian,16
Javanese,33
Polish,5
Romanian,81
German,257
Uzbek,10
Swedish,86
Estonian,20
