Vietnamese,0.002791996277338297
Latvian,9.306654257794323E-4
Danish,0.002326663564448581
Galician,0.0018613308515588647
French,0.010702652396463471
Finnish,4.6533271288971617E-4
Hungarian,9.306654257794323E-4
Bosnian,0.002326663564448581
Maltese,4.6533271288971617E-4
Welsh,0.002791996277338297
Czech,9.306654257794323E-4
Indonesian,0.006979990693345742
Esperanto,4.6533271288971617E-4
Malay,4.6533271288971617E-4
Albanian,4.6533271288971617E-4
Filipino,9.306654257794323E-4
Italian,0.004653327128897162
Icelandic,0.002326663564448581
Slovak,4.6533271288971617E-4
Spanish,0.013959981386691484
Slovenian,0.003257328990228013
Azerbaijani,4.6533271288971617E-4
Basque,0.0013959981386691485
English,0.8906468124709167
Norwegian,0.002791996277338297
Dutch,9.306654257794323E-4
Turkish,9.306654257794323E-4
Portuguese,0.010702652396463471
Latin,4.6533271288971617E-4
Catalan,0.004187994416007445
Croatian,4.6533271288971617E-4
Polish,0.003257328990228013
Javanese,4.6533271288971617E-4
Romanian,0.004653327128897162
German,0.006514657980456026
Afrikaans,0.006514657980456026
Swahili,0.0013959981386691485
Swedish,0.003257328990228013
Estonian,4.6533271288971617E-4
