null,36
Maori,3
Vietnamese,18
Sesotho,19
Haitian Creole,18
Yoruba,2
Hausa,5
Sundanese,5
French,1311
Hmong,4
Malagasy,8
Hungarian,28
Bosnian,5
Maltese,11
Korean,64
Welsh,17
Lithuanian,45
Indonesian,28
Igbo,4
Irish,29
Filipino,17
Cebuano,4
Zulu,4
Slovak,19
Slovenian,29
Azerbaijani,3
Chichewa,7
Norwegian,80
Turkish,13
Portuguese,85
Latin,26
Catalan,93
Swahili,7
Afrikaans,40
Latvian,9
Danish,89
Galician,62
Finnish,23
Czech,27
Malay,11
Esperanto,19
Chinese (Traditional),1
Italian,146
Albanian,11
Icelandic,22
Spanish,100
Somali,2
Basque,25
Dutch,69
English,2100
Croatian,12
Javanese,14
Polish,21
Romanian,91
German,46
Uzbek,1
Swedish,61
Estonian,28
